Nebraska Farmers Market Demo
…
unnest(): Expands list-columns into regular rows and columns.

keep_empty = TRUE: Ensures that all growers are retained in the output, even if they do not sell a particular type of product.

str_trim(): Removes leading and trailing white space from character strings.

grower_market = grower_data |> 
  select(grower_name, grower_market) |> 
  unnest(c(grower_name, grower_market), keep_empty = TRUE)

# Preview the results
grower_market

# A tibble: 235 × 2
   grower_name           grower_market                                  
   <chr>                 <chr>                                          
 1 A & C Farm            Morrill Farmers Market                         
 2 Abie Vegetable People Omaha Farmers Market in Aksarben Village       
 3 Abie Vegetable People Sunday Farmers Market at College View (Lincoln)
 4 Aden Creative         Gothenburg Farmers Market                      
 5 Anderson Produce      Blair Farmers Market                           
 6 Anderson Produce      Lyons Main Street Farmers Market               
 7 Arnold's Acres        Bennet Farmers Market                          
 8 Arnold's Acres        Syracuse Farmers Market                        
 9 Ba-Dra-Mi Farms       Omaha Farmers Market in Aksarben Village       
10 Ba-Dra-Mi Farms       Omaha Farmers Market in the Old Market         
# ℹ 225 more rows

# Remove leading/trailing white space from grower names
grower_market$grower_name = str_trim(grower_market$grower_name)

grower_veggie = grower_data |> 
  select(grower_name, grower_vegetable) |> 
  unnest(cols = c(grower_name, grower_vegetable), keep_empty = TRUE)

# Preview the results
grower_veggie

# A tibble: 2,063 × 2
   grower_name grower_vegetable
   <chr>       <chr>           
 1 A & C Farm  BEANS           
 2 A & C Farm  CABBAGE         
 3 A & C Farm  CARROTS         
 4 A & C Farm  CUCUMBERS       
 5 A & C Farm  HORSERADISH     
 6 A & C Farm  INDIAN_CORN     
 7 A & C Farm  KOHLRABI        
 8 A & C Farm  LEEKS           
 9 A & C Farm  OKRA            
10 A & C Farm  PEPPERS         
# ℹ 2,053 more rows

# Trim white space from grower names
grower_veggie$grower_name = str_trim(grower_veggie$grower_name)

grower_fruit = grower_data |> 
  select(grower_name, grower_fruit) |> 
  unnest(cols = c(grower_name, grower_fruit), keep_empty = TRUE)

# Preview the results
grower_fruit

# A tibble: 397 × 2
   grower_name           grower_fruit 
   <chr>                 <chr>        
 1 A & C Farm            CANTALOUPES  
 2 Abie Vegetable People <NA>         
 3 Aden Creative         <NA>         
 4 Anderson Produce      APPLES       
 5 Anderson Produce      CANTALOUPES  
 6 Anderson Produce      STRAWBERRIES 
 7 Anderson Produce      WATERMELONS  
 8 Arnold's Acres        CANTALOUPES  
 9 Arnold's Acres        CHERRIES     
10 Arnold's Acres        CHOKECHERRIES
# ℹ 387 more rows

# Trim white space from grower names
grower_fruit$grower_name = str_trim(grower_fruit$grower_name)

grower_herb = grower_data |> 
  select(grower_name, grower_herb) |> 
  unnest(cols = c(grower_name, grower_herb), keep_empty = TRUE)

# Preview the results
grower_herb

# A tibble: 520 × 2
   grower_name           grower_herb
   <chr>                 <chr>      
 1 A & C Farm            <NA>       
 2 Abie Vegetable People <NA>       
 3 Aden Creative         BASIL      
 4 Aden Creative         OREGANO    
 5 Aden Creative         ROSEMARY   
 6 Anderson Produce      BASIL      
 7 Anderson Produce      CAMOMILE   
 8 Anderson Produce      CILANTRO   
 9 Anderson Produce      CORIANDERS 
10 Anderson Produce      DILL       
# ℹ 510 more rows
…
mutate(): Creates a new column (count) to indicate whether a product is present (1) or missing (0).

group_by(): Groups the data by grower_name to prepare for summarization.

summarize(): Aggregates the data to compute the number of items sold per grower.

grower_veggie |>
  mutate(count = case_when(is.na(grower_vegetable) ~ 0, TRUE ~ 1)) |>
  group_by(grower_name) |>
  summarize(n_veggie = sum(count)) -> grower_veggie_n

# View the summarized data
grower_veggie_n

# A tibble: 136 × 2
   grower_name           n_veggie
   <chr>                    <dbl>
 1 A & C Farm                  17
 2 Abie Vegetable People       13
 3 Aden Creative                7
 4 Anderson Produce            22
 5 Arnold's Acres              15
 6 Ba-Dra-Mi Farms             14
 7 Bao Nhia Thao               24
 8 Beavers Produce             25
 9 Biermans of Arnold          12
10 Big Muddy Urban Farm        32
# ℹ 126 more rows

grower_fruit |> 
  mutate(count = case_when(is.na(grower_fruit) ~ 0, TRUE ~ 1)) |> 
  group_by(grower_name) |> 
  summarize(n_fruit = sum(count)) -> grower_fruit_n

# View the summarized data
grower_fruit_n

# A tibble: 136 × 2
   grower_name           n_fruit
   <chr>                   <dbl>
 1 A & C Farm                  1
 2 Abie Vegetable People       0
 3 Aden Creative               0
 4 Anderson Produce            4
 5 Arnold's Acres              8
 6 Ba-Dra-Mi Farms             4
 7 Bao Nhia Thao               1
 8 Beavers Produce             2
 9 Biermans of Arnold          0
10 Big Muddy Urban Farm        7
# ℹ 126 more rows

grower_herb |> 
  mutate(count = case_when(is.na(grower_herb) ~ 0, TRUE ~ 1)) |> 
  group_by(grower_name) |> 
  summarize(n_herb = sum(count)) -> grower_herb_n

# View the summarized data
grower_herb_n

# A tibble: 136 × 2
   grower_name           n_herb
   <chr>                  <dbl>
 1 A & C Farm                 0
 2 Abie Vegetable People      0
 3 Aden Creative              3
 4 Anderson Produce          12
 5 Arnold's Acres             0
 6 Ba-Dra-Mi Farms           15
 7 Bao Nhia Thao             11
 8 Beavers Produce            7
 9 Biermans of Arnold         0
10 Big Muddy Urban Farm      19
# ℹ 126 more rows
…
Joining with `by = join_by(grower_name)`
Joining with `by = join_by(grower_name)`

# Calculate total number of products sold by each grower
grower_product = grower_product |> 
  mutate(n_product = rowSums(grower_product[, 2:4], na.rm = TRUE))

# View the result
grower_product

# A tibble: 136 × 5
   grower_name           n_fruit n_veggie n_herb n_product
   <chr>                   <dbl>    <dbl>  <dbl>     <dbl>
 1 A & C Farm                  1       17      0        18
 2 Abie Vegetable People       0       13      0        13
 3 Aden Creative               0        7      3        10
 4 Anderson Produce            4       22     12        38
 5 Arnold's Acres              8       15      0        23
 6 Ba-Dra-Mi Farms             4       14     15        33
 7 Bao Nhia Thao               1       24     11        36
 8 Beavers Produce             2       25      7        34
 9 Biermans of Arnold          0       12      0        12
10 Big Muddy Urban Farm        7       32     19        58
# ℹ 126 more rows
…
Key functions:

pivot_longer: Converts data from wide format to long format. This is useful for plotting or performing grouped operations across multiple columns. In this case, it turns the columns n_veggie, n_fruit, and n_herb into two columns:

name: The original column names

value: The corresponding values for each grower

grower_product_long = grower_product |> 
  pivot_longer(cols = n_fruit:n_herb)

# Preview reshaped data
grower_product_long

# A tibble: 408 × 4
   grower_name           n_product name     value
   <chr>                     <dbl> <chr>    <dbl>
 1 A & C Farm                   18 n_fruit      1
 2 A & C Farm                   18 n_veggie    17
 3 A & C Farm                   18 n_herb       0
 4 Abie Vegetable People        13 n_fruit      0
 5 Abie Vegetable People        13 n_veggie    13
 6 Abie Vegetable People        13 n_herb       0
 7 Aden Creative                10 n_fruit      0
 8 Aden Creative                10 n_veggie     7
 9 Aden Creative                10 n_herb       3
10 Anderson Produce             38 n_fruit      4
# ℹ 398 more rows
…
2.7.2 Step 2: Add county information to grower_market data

Use left_join() to merge county information into the grower_market data based on market names.

# Merge market info to include county data
grower_market_info = grower_market |> 
  left_join(market_info |> 
              select(name, county), 
            by = join_by(grower_market == name))

# Preview result
grower_market_info

# A tibble: 235 × 3
   grower_name           grower_market                                   county 
   <chr>                 <chr>                                           <chr>  
 1 A & C Farm            Morrill Farmers Market                          SCOTTS…
 2 Abie Vegetable People Omaha Farmers Market in Aksarben Village        DOUGLAS
 3 Abie Vegetable People Sunday Farmers Market at College View (Lincoln) LANCAS…
 4 Aden Creative         Gothenburg Farmers Market                       DAWSON 
 5 Anderson Produce      Blair Farmers Market                            KS_WAS…
 6 Anderson Produce      Lyons Main Street Farmers Market                BURT   
 7 Arnold's Acres        Bennet Farmers Market                           LANCAS…
 8 Arnold's Acres        Syracuse Farmers Market                         OTOE   
 9 Ba-Dra-Mi Farms       Omaha Farmers Market in Aksarben Village        DOUGLAS
10 Ba-Dra-Mi Farms       Omaha Farmers Market in the Old Market          DOUGLAS
# ℹ 225 more rows
…
left_join(): Merges two data frames by matching rows based on a common key (in this case, market names and grower names).

join_by(): Allows you to specify the join condition when the column names differ between the two tables.

relationship = "many-to-one": Ensures the join logic respects the expected data structure—many growers can map to one row in grower_product.

grower_data = grower_market_info |> 
  select(grower_name, grower_market, county) |> 
  left_join(grower_product, by = "grower_name", 
            relationship = "many-to-one")

# Preview final data with county information
grower_data

# A tibble: 235 × 7
   grower_name           grower_market  county n_fruit n_veggie n_herb n_product
   <chr>                 <chr>          <chr>    <dbl>    <dbl>  <dbl>     <dbl>
 1 A & C Farm            Morrill Farme… SCOTT…       1       17      0        18
 2 Abie Vegetable People Omaha Farmers… DOUGL…       0       13      0        13
 3 Abie Vegetable People Sunday Farmer… LANCA…       0       13      0        13
 4 Aden Creative         Gothenburg Fa… DAWSON       0        7      3        10
 5 Anderson Produce      Blair Farmers… KS_WA…       4       22     12        38
 6 Anderson Produce      Lyons Main St… BURT         4       22     12        38
 7 Arnold's Acres        Bennet Farmer… LANCA…       8       15      0        23
 8 Arnold's Acres        Syracuse Farm… OTOE         8       15      0        23
 9 Ba-Dra-Mi Farms       Omaha Farmers… DOUGL…       4       14     15        33
10 Ba-Dra-Mi Farms       Omaha Farmers… DOUGL…       4       14     15        33
# ℹ 225 more rows
…
